{
  "6078cbae574419b504634f8944dfdd94441e14aa747c2dae04cf292b999d3302": true,
  "19fbef23f1b3c3f281ea2a43987dca4aada5c0fc953b39ab9f6b5844852cfd44": true,
  "2f3f430fe34f956d4d5d0058cc7f50b18b66ea805c94e7d5da7d08c24187e833": true,
  "eb8a791d2b6652a90ea01b19aab0b0478f901cef0eb4703986b38c41d0b394cd": true,
  "779b1e898b1aae8f30e8776e7e58b0904aac4d4c13386eb50453d44a1e39b74b": true,
  "56ff6fb582765535ac23f4090ef1cea86f4c2cf490864664314c837aea6bd8d6": true,
  "d96f4bb5151cd42752454df640a7c99be6476a04f022408160b13ef80d567c8a": true,
  "385f9a23c337a91294970d82b84f21a87d736feeec37b2754e681e136bc70f70": true,
  "61cdcb1d81913d5d56d8a8bb46ced7d2f12d33c29a5a2f75a535b656cf6b3aa3": true,
  "ad18d6bee03f09ad472651098658e749258153aaa7c5e04b3cacf8c01d6181df": true,
  "83ec88541613db2ca95355217950e1ba9dd33d5be4a50b25af83a1f4240e8ca4": true,
  "a239ad6da0bb700d04e2aa8a6233c5c402a4579dbc47fb2ddcb4a9a1a0d1166e": true,
  "c6a9065c0a920160a2f361ec6707612096a13a7b85182b072d9b1afb66acb619": true,
  "d8cf3a1e0977760cf067fb745ccb76a70ce82559c801a9ca520614b7bd525c44": true,
  "c2f7d509451b6f63582eb1979d51ae2d30cc4aba0f605ad5e488207714f62a95": true,
  "aaafd4e9e981bb9d59f63e799cc9f1af05babb4ce5ce4ad8326c21889dd642a4": true,
  "7ed1d5f8bc4305d2d7aadf1a53a366e240cd08bfcc72d092ab564bccddf096d2": true,
  "4d6ab3977289b828e621584026d495f8f7ce97f3943280839e2e65304b1bcd0a": true,
  "80dd2ede301ba190872e8ba79271f9998e2c59b1d107f8d58b1113a4c6f4c252": true,
  "544e0eba1c9f908cd82d5037e111101bccde7f06cad7f473aa8902cbd43c42e7": true,
  "38a16966b6f580a01b1eb930f7b9223bd07f39c654e1477b2248c3f9dc026ebb": true,
  "261a7ade08977309723f6cebe85275b4c2c802abd0043da7aaa3fac356bbbddc": true,
  "b106e0b3c9ff1b26670f2c5243dee83c20775bf7020ec14f3557c2eae5f3ce7b": true,
  "77215fe3cb80ed491c7d37e98cd540c37bca60fb8300004deb9310ba6de43cd6": true,
  "0b538c8c08fc89b757a308d8068ba3560f2a7f8bc979a01f94012adf33a0545a": true,
  "5d9ee03fa2a2b0e72fbb30ad7db772ab582f6bd5b55c4c135e7da4ac53c3c60c": true,
  "42c99424b6fad06a519beb2800f7e7ba359c2f7d942af9cfc03033c14589ebcf": true
}
